倾向性得分匹配 - 因果推断的利器 – R 语言学习笔记
…
# 创建数据框
birth_data <- tibble(
  id = 1:n,
  age = age,
  education = factor(education, labels = c("初中", "高中", "本科", "研究生")),
  income = income,
  prenatal_visits = prenatal_visits,
  smoking = smoking,
  birthweight = round(birthweight)
)

birth_data

# A tibble: 1,000 × 7
      id   age education income prenatal_visits smoking birthweight
   <int> <dbl> <fct>      <dbl>           <int>   <int>       <dbl>
 1     1    33 高中       88087               3       0        3714
 2     2    30 研究生     47298               9       0        3139
 3     3    27 本科       60744              10       0        3687
 4     4    27 高中       34279               8       0        4095
 5     5    34 本科       45515              10       0        3464
 6     6    34 高中       50469               5       0        3902
 7     7    31 本科       68495               9       0        3713
 8     8    27 本科       46204               9       0        3962
 9     9    22 高中       75489               8       0        2910
10    10    22 研究生     70732              11       0        3745
# ℹ 990 more rows
…
