tidymodels 现代机器学习框架 – R 语言学习笔记
…
查看调参结果

# 查看所有结果
collect_metrics(tune_results)

# A tibble: 32 × 8
    mtry min_n .metric  .estimator  mean     n  std_err .config         
   <int> <int> <chr>    <chr>      <dbl> <int>    <dbl> <chr>           
 1     1     2 accuracy multiclass 0.992     5 0.00833  pre0_mod01_post0
 2     1     2 roc_auc  hand_till  0.999     5 0.000635 pre0_mod01_post0
 3     1     4 accuracy multiclass 0.992     5 0.00833  pre0_mod02_post0
 4     1     4 roc_auc  hand_till  0.999     5 0.000635 pre0_mod02_post0
 5     1     7 accuracy multiclass 0.992     5 0.00833  pre0_mod03_post0
 6     1     7 roc_auc  hand_till  0.999     5 0.000952 pre0_mod03_post0
 7     1    10 accuracy multiclass 0.992     5 0.00833  pre0_mod04_post0
 8     1    10 roc_auc  hand_till  0.999     5 0.00127  pre0_mod04_post0
 9     2     2 accuracy multiclass 0.988     5 0.00833  pre0_mod05_post0
10     2     2 roc_auc  hand_till  0.999     5 0.000635 pre0_mod05_post0
# ℹ 22 more rows
…
