缺失值查看与处理完全指南 – R 语言学习笔记
…
对多重插补数据建模

# 在每个插补数据集上拟合模型
fit <- with(imp, lm(disease_score ~ age + sex + education + income + bmi + cholesterol))

# 查看各数据集的结果
summary(fit)

# A tibble: 45 × 7
   term               estimate std.error statistic   p.value  nobs df.residual
   <chr>                 <dbl>     <dbl>     <dbl>     <dbl> <int>       <dbl>
 1 (Intercept)     -88.8        4.42       -20.1   6.84e- 66   500         491
 2 age               0.325      0.0380       8.55  1.56e- 16   500         491
 3 sex女             0.110      0.874        0.126 9.00e-  1   500         491
 4 education高中    -0.417      1.33        -0.314 7.54e-  1   500         491
 5 education本科     0.642      1.31         0.489 6.25e-  1   500         491
 6 education研究生  -0.436      1.61        -0.271 7.87e-  1   500         491
 7 income            0.0000859  0.000152     0.567 5.71e-  1   500         491
 8 bmi               5.04       0.111       45.3   1.39e-177   500         491
 9 cholesterol      -0.00579    0.0108      -0.538 5.91e-  1   500         491
10 (Intercept)     -87.3        4.55       -19.2   1.26e- 61   500         491
# ℹ 35 more rows
…
