data.table 完全指南：高性能数据处理 – R 语言学习笔记
…
# dplyr
tbl <- as_tibble(dt)
filter(tbl, value1 > 100)

# A tibble: 520 × 4
      id group value1 value2
   <int> <chr>  <dbl>  <dbl>
 1     1 A       109.   61.9
 2     4 A       115.   42.3
 3     9 A       110.   49.7
 4    11 A       102.   54.5
 5    17 A       126.   65.0
 6    29 A       101.   36.4
 7    55 A       120.   65.4
 8    79 A       115.   46.0
 9    91 A       114.   65.9
10    92 A       106.   60.0
# ℹ 510 more rows
…
# dplyr
select(tbl, group, value1)

# A tibble: 1,000 × 2
   group value1
   <chr>  <dbl>
 1 A      109. 
 2 A       91.3
 3 A      115. 
 4 A      110. 
 5 A      102. 
 6 A      126. 
 7 A       82.4
 8 A      101. 
 9 A       79.7
10 A      120. 
# ℹ 990 more rows
…
# dplyr
arrange(tbl, desc(value1))

# A tibble: 1,000 × 5
      id group value1 value2 new_col
   <int> <chr>  <dbl>  <dbl>   <dbl>
 1    58 E       148.   73.6    296.
 2   559 D       147.   56.6    294.
 3    12 E       143.   63.1    287.
 4    15 B       143.   62.0    286.
 5    38 E       140.   52.1    281.
 6   288 A       139.   42.6    278.
 7   550 C       136.   42.2    272.
 8    35 B       135.   55.6    271.
 9    61 E       135.   37.1    270.
10   906 C       135.   43.5    270.
# ℹ 990 more rows
…
