dplyr/tidyr 数据处理完全指南 – R 语言学习笔记
…
3.2 1.2 select() - 选择列

# 选择特定列
df %>% select(car, mpg, hp)

# A tibble: 32 × 3
   car                 mpg    hp
   <chr>             <dbl> <dbl>
 1 Mazda RX4          21     110
 2 Mazda RX4 Wag      21     110
 3 Datsun 710         22.8    93
 4 Hornet 4 Drive     21.4   110
 5 Hornet Sportabout  18.7   175
 6 Valiant            18.1   105
 7 Duster 360         14.3   245
 8 Merc 240D          24.4    62
 9 Merc 230           22.8    95
10 Merc 280           19.2   123
# ℹ 22 more rows

# 排除列
df %>% select(-car, -vs, -am)

# A tibble: 32 × 9
     mpg   cyl  disp    hp  drat    wt  qsec  gear  carb
   <dbl> <dbl> <dbl> <dbl> <dbl> <dbl> <dbl> <dbl> <dbl>
 1  21       6  160    110  3.9   2.62  16.5     4     4
 2  21       6  160    110  3.9   2.88  17.0     4     4
 3  22.8     4  108     93  3.85  2.32  18.6     4     1
 4  21.4     6  258    110  3.08  3.22  19.4     3     1
 5  18.7     8  360    175  3.15  3.44  17.0     3     2
 6  18.1     6  225    105  2.76  3.46  20.2     3     1
 7  14.3     8  360    245  3.21  3.57  15.8     3     4
 8  24.4     4  147.    62  3.69  3.19  20       4     2
 9  22.8     4  141.    95  3.92  3.15  22.9     4     2
10  19.2     6  168.   123  3.92  3.44  18.3     4     4
# ℹ 22 more rows

# 选择范围
df %>% select(mpg:hp)

# A tibble: 32 × 4
     mpg   cyl  disp    hp
   <dbl> <dbl> <dbl> <dbl>
 1  21       6  160    110
 2  21       6  160    110
 3  22.8     4  108     93
 4  21.4     6  258    110
 5  18.7     8  360    175
 6  18.1     6  225    105
 7  14.3     8  360    245
 8  24.4     4  147.    62
 9  22.8     4  141.    95
10  19.2     6  168.   123
# ℹ 22 more rows

# 辅助函数
df %>% select(starts_with("c")) # 以c开头

# A tibble: 32 × 3
   car                 cyl  carb
   <chr>             <dbl> <dbl>
 1 Mazda RX4             6     4
 2 Mazda RX4 Wag         6     4
 3 Datsun 710            4     1
 4 Hornet 4 Drive        6     1
 5 Hornet Sportabout     8     2
 6 Valiant               6     1
 7 Duster 360            8     4
 8 Merc 240D             4     2
 9 Merc 230              4     2
10 Merc 280              6     4
# ℹ 22 more rows

df %>% select(ends_with("p")) # 以p结尾

# A tibble: 32 × 2
    disp    hp
   <dbl> <dbl>
 1  160    110
 2  160    110
 3  108     93
 4  258    110
 5  360    175
 6  225    105
 7  360    245
 8  147.    62
 9  141.    95
10  168.   123
# ℹ 22 more rows

df %>% select(contains("ar")) # 包含ar

# A tibble: 32 × 3
   car                gear  carb
   <chr>             <dbl> <dbl>
 1 Mazda RX4             4     4
 2 Mazda RX4 Wag         4     4
 3 Datsun 710            4     1
 4 Hornet 4 Drive        3     1
 5 Hornet Sportabout     3     2
 6 Valiant               3     1
 7 Duster 360            3     4
 8 Merc 240D             4     2
 9 Merc 230              4     2
10 Merc 280              4     4
# ℹ 22 more rows

df %>% select(where(is.numeric)) # 数值型列

# A tibble: 32 × 11
     mpg   cyl  disp    hp  drat    wt  qsec    vs    am  gear  carb
   <dbl> <dbl> <dbl> <dbl> <dbl> <dbl> <dbl> <dbl> <dbl> <dbl> <dbl>
 1  21       6  160    110  3.9   2.62  16.5     0     1     4     4
 2  21       6  160    110  3.9   2.88  17.0     0     1     4     4
 3  22.8     4  108     93  3.85  2.32  18.6     1     1     4     1
 4  21.4     6  258    110  3.08  3.22  19.4     1     0     3     1
 5  18.7     8  360    175  3.15  3.44  17.0     0     0     3     2
 6  18.1     6  225    105  2.76  3.46  20.2     1     0     3     1
 7  14.3     8  360    245  3.21  3.57  15.8     0     0     3     4
 8  24.4     4  147.    62  3.69  3.19  20       1     0     4     2
 9  22.8     4  141.    95  3.92  3.15  22.9     1     0     4     2
10  19.2     6  168.   123  3.92  3.44  18.3     1     0     4     4
# ℹ 22 more rows

3.3 1.3 mutate() - 创建/修改列

# 创建新列
df %>% mutate(
    kpl = mpg * 0.425, # 英里转公里
    hp_per_cyl = hp / cyl # 每缸马力
)

# A tibble: 32 × 14
   car     mpg   cyl  disp    hp  drat    wt  qsec    vs    am  gear  carb   kpl
   <chr> <dbl> <dbl> <dbl> <dbl> <dbl> <dbl> <dbl> <dbl> <dbl> <dbl> <dbl> <dbl>
 1 Mazd…  21       6  160    110  3.9   2.62  16.5     0     1     4     4  8.92
 2 Mazd…  21       6  160    110  3.9   2.88  17.0     0     1     4     4  8.92
 3 Dats…  22.8     4  108     93  3.85  2.32  18.6     1     1     4     1  9.69
 4 Horn…  21.4     6  258    110  3.08  3.22  19.4     1     0     3     1  9.09
 5 Horn…  18.7     8  360    175  3.15  3.44  17.0     0     0     3     2  7.95
 6 Vali…  18.1     6  225    105  2.76  3.46  20.2     1     0     3     1  7.69
 7 Dust…  14.3     8  360    245  3.21  3.57  15.8     0     0     3     4  6.08
 8 Merc…  24.4     4  147.    62  3.69  3.19  20       1     0     4     2 10.4 
 9 Merc…  22.8     4  141.    95  3.92  3.15  22.9     1     0     4     2  9.69
10 Merc…  19.2     6  168.   123  3.92  3.44  18.3     1     0     4     4  8.16
# ℹ 22 more rows
# ℹ 1 more variable: hp_per_cyl <dbl>

# 条件创建
df %>% mutate(
    efficiency = case_when(
        mpg >= 25 ~ "高效",
        mpg >= 18 ~ "中等",
        TRUE ~ "低效"
    )
)

# A tibble: 32 × 13
   car           mpg   cyl  disp    hp  drat    wt  qsec    vs    am  gear  carb
   <chr>       <dbl> <dbl> <dbl> <dbl> <dbl> <dbl> <dbl> <dbl> <dbl> <dbl> <dbl>
 1 Mazda RX4    21       6  160    110  3.9   2.62  16.5     0     1     4     4
 2 Mazda RX4 …  21       6  160    110  3.9   2.88  17.0     0     1     4     4
 3 Datsun 710   22.8     4  108     93  3.85  2.32  18.6     1     1     4     1
 4 Hornet 4 D…  21.4     6  258    110  3.08  3.22  19.4     1     0     3     1
 5 Hornet Spo…  18.7     8  360    175  3.15  3.44  17.0     0     0     3     2
 6 Valiant      18.1     6  225    105  2.76  3.46  20.2     1     0     3     1
 7 Duster 360   14.3     8  360    245  3.21  3.57  15.8     0     0     3     4
 8 Merc 240D    24.4     4  147.    62  3.69  3.19  20       1     0     4     2
 9 Merc 230     22.8     4  141.    95  3.92  3.15  22.9     1     0     4     2
10 Merc 280     19.2     6  168.   123  3.92  3.44  18.3     1     0     4     4
# ℹ 22 more rows
# ℹ 1 more variable: efficiency <chr>

# 修改现有列
df %>% mutate(
    cyl = as.factor(cyl),
    am = ifelse(am == 1, "手动", "自动")
)

# A tibble: 32 × 12
   car           mpg cyl    disp    hp  drat    wt  qsec    vs am     gear  carb
   <chr>       <dbl> <fct> <dbl> <dbl> <dbl> <dbl> <dbl> <dbl> <chr> <dbl> <dbl>
 1 Mazda RX4    21   6      160    110  3.9   2.62  16.5     0 手动      4     4
 2 Mazda RX4 …  21   6      160    110  3.9   2.88  17.0     0 手动      4     4
 3 Datsun 710   22.8 4      108     93  3.85  2.32  18.6     1 手动      4     1
 4 Hornet 4 D…  21.4 6      258    110  3.08  3.22  19.4     1 自动      3     1
 5 Hornet Spo…  18.7 8      360    175  3.15  3.44  17.0     0 自动      3     2
 6 Valiant      18.1 6      225    105  2.76  3.46  20.2     1 自动      3     1
 7 Duster 360   14.3 8      360    245  3.21  3.57  15.8     0 自动      3     4
 8 Merc 240D    24.4 4      147.    62  3.69  3.19  20       1 自动      4     2
 9 Merc 230     22.8 4      141.    95  3.92  3.15  22.9     1 自动      4     2
10 Merc 280     19.2 6      168.   123  3.92  3.44  18.3     1 自动      4     4
# ℹ 22 more rows

3.4 1.4 arrange() - 排序

# 升序
df %>% arrange(mpg)

# A tibble: 32 × 12
   car           mpg   cyl  disp    hp  drat    wt  qsec    vs    am  gear  carb
   <chr>       <dbl> <dbl> <dbl> <dbl> <dbl> <dbl> <dbl> <dbl> <dbl> <dbl> <dbl>
 1 Cadillac F…  10.4     8  472    205  2.93  5.25  18.0     0     0     3     4
 2 Lincoln Co…  10.4     8  460    215  3     5.42  17.8     0     0     3     4
 3 Camaro Z28   13.3     8  350    245  3.73  3.84  15.4     0     0     3     4
 4 Duster 360   14.3     8  360    245  3.21  3.57  15.8     0     0     3     4
 5 Chrysler I…  14.7     8  440    230  3.23  5.34  17.4     0     0     3     4
 6 Maserati B…  15       8  301    335  3.54  3.57  14.6     0     1     5     8
 7 Merc 450SLC  15.2     8  276.   180  3.07  3.78  18       0     0     3     3
 8 AMC Javelin  15.2     8  304    150  3.15  3.44  17.3     0     0     3     2
 9 Dodge Chal…  15.5     8  318    150  2.76  3.52  16.9     0     0     3     2
10 Ford Pante…  15.8     8  351    264  4.22  3.17  14.5     0     1     5     4
# ℹ 22 more rows

# 降序
df %>% arrange(desc(mpg))

# A tibble: 32 × 12
   car           mpg   cyl  disp    hp  drat    wt  qsec    vs    am  gear  carb
   <chr>       <dbl> <dbl> <dbl> <dbl> <dbl> <dbl> <dbl> <dbl> <dbl> <dbl> <dbl>
 1 Toyota Cor…  33.9     4  71.1    65  4.22  1.84  19.9     1     1     4     1
 2 Fiat 128     32.4     4  78.7    66  4.08  2.2   19.5     1     1     4     1
 3 Honda Civic  30.4     4  75.7    52  4.93  1.62  18.5     1     1     4     2
 4 Lotus Euro…  30.4     4  95.1   113  3.77  1.51  16.9     1     1     5     2
 5 Fiat X1-9    27.3     4  79      66  4.08  1.94  18.9     1     1     4     1
 6 Porsche 91…  26       4 120.     91  4.43  2.14  16.7     0     1     5     2
 7 Merc 240D    24.4     4 147.     62  3.69  3.19  20       1     0     4     2
 8 Datsun 710   22.8     4 108      93  3.85  2.32  18.6     1     1     4     1
 9 Merc 230     22.8     4 141.     95  3.92  3.15  22.9     1     0     4     2
10 Toyota Cor…  21.5     4 120.     97  3.7   2.46  20.0     1     0     3     1
# ℹ 22 more rows

# 多列排序
df %>% arrange(cyl, desc(mpg))

# A tibble: 32 × 12
   car           mpg   cyl  disp    hp  drat    wt  qsec    vs    am  gear  carb
   <chr>       <dbl> <dbl> <dbl> <dbl> <dbl> <dbl> <dbl> <dbl> <dbl> <dbl> <dbl>
 1 Toyota Cor…  33.9     4  71.1    65  4.22  1.84  19.9     1     1     4     1
 2 Fiat 128     32.4     4  78.7    66  4.08  2.2   19.5     1     1     4     1
 3 Honda Civic  30.4     4  75.7    52  4.93  1.62  18.5     1     1     4     2
 4 Lotus Euro…  30.4     4  95.1   113  3.77  1.51  16.9     1     1     5     2
 5 Fiat X1-9    27.3     4  79      66  4.08  1.94  18.9     1     1     4     1
 6 Porsche 91…  26       4 120.     91  4.43  2.14  16.7     0     1     5     2
 7 Merc 240D    24.4     4 147.     62  3.69  3.19  20       1     0     4     2
 8 Datsun 710   22.8     4 108      93  3.85  2.32  18.6     1     1     4     1
 9 Merc 230     22.8     4 141.     95  3.92  3.15  22.9     1     0     4     2
10 Toyota Cor…  21.5     4 120.     97  3.7   2.46  20.0     1     0     3     1
# ℹ 22 more rows
…
4.2 2.2 group_by() + mutate()

# 分组内计算
df %>%
    group_by(cyl) %>%
    mutate(
        mpg_rank = rank(-mpg), # 组内排名
        mpg_pct = mpg / max(mpg) # 组内百分比
    ) %>%
    select(car, cyl, mpg, mpg_rank, mpg_pct)

# A tibble: 32 × 5
# Groups:   cyl [3]
   car                 cyl   mpg mpg_rank mpg_pct
   <chr>             <dbl> <dbl>    <dbl>   <dbl>
 1 Mazda RX4             6  21        2.5   0.981
 2 Mazda RX4 Wag         6  21        2.5   0.981
 3 Datsun 710            4  22.8      8.5   0.673
 4 Hornet 4 Drive        6  21.4      1     1    
 5 Hornet Sportabout     8  18.7      2     0.974
 6 Valiant               6  18.1      6     0.846
 7 Duster 360            8  14.3     11     0.745
 8 Merc 240D             4  24.4      7     0.720
 9 Merc 230              4  22.8      8.5   0.673
10 Merc 280              6  19.2      5     0.897
# ℹ 22 more rows
…
prices <- tibble(
    car = c("Mazda RX4", "Datsun 710", "Honda Civic"),
    price = c(25000, 18000, 15000)
)

5.1 3.1 left_join() - 左连接

# 保留左表所有行
df %>%
    select(car, mpg, hp) %>%
    left_join(cars_info, by = "car")

# A tibble: 32 × 5
   car                 mpg    hp country  year
   <chr>             <dbl> <dbl> <chr>   <dbl>
 1 Mazda RX4          21     110 日本     1978
 2 Mazda RX4 Wag      21     110 <NA>       NA
 3 Datsun 710         22.8    93 <NA>       NA
 4 Hornet 4 Drive     21.4   110 <NA>       NA
 5 Hornet Sportabout  18.7   175 <NA>       NA
 6 Valiant            18.1   105 <NA>       NA
 7 Duster 360         14.3   245 <NA>       NA
 8 Merc 240D          24.4    62 <NA>       NA
 9 Merc 230           22.8    95 <NA>       NA
10 Merc 280           19.2   123 <NA>       NA
# ℹ 22 more rows
…
nested

# A tibble: 3 × 2
# Groups:   cyl [3]
    cyl data              
  <dbl> <list>            
1     6 <tibble [7 × 11]> 
2     4 <tibble [11 × 11]>
3     8 <tibble [14 × 11]>

# 展开嵌套
nested %>% unnest(data)

# A tibble: 32 × 12
# Groups:   cyl [3]
     cyl car           mpg  disp    hp  drat    wt  qsec    vs    am  gear  carb
   <dbl> <chr>       <dbl> <dbl> <dbl> <dbl> <dbl> <dbl> <dbl> <dbl> <dbl> <dbl>
 1     6 Mazda RX4    21    160    110  3.9   2.62  16.5     0     1     4     4
 2     6 Mazda RX4 …  21    160    110  3.9   2.88  17.0     0     1     4     4
 3     6 Hornet 4 D…  21.4  258    110  3.08  3.22  19.4     1     0     3     1
 4     6 Valiant      18.1  225    105  2.76  3.46  20.2     1     0     3     1
 5     6 Merc 280     19.2  168.   123  3.92  3.44  18.3     1     0     4     4
 6     6 Merc 280C    17.8  168.   123  3.92  3.44  18.9     1     0     4     4
 7     6 Ferrari Di…  19.7  145    175  3.62  2.77  15.5     0     1     5     6
 8     4 Datsun 710   22.8  108     93  3.85  2.32  18.6     1     1     4     1
 9     4 Merc 240D    24.4  147.    62  3.69  3.19  20       1     0     4     2
10     4 Merc 230     22.8  141.    95  3.92  3.15  22.9     1     0     4     2
# ℹ 22 more rows

7 第五部分：实用技巧

7.1 5.1 跨列操作 across()

# 批量标准化
df %>%
    mutate(across(
        where(is.numeric),
        ~ (. - mean(.)) / sd(.)
    )) %>%
    select(car, mpg, hp, wt)

# A tibble: 32 × 4
   car                  mpg     hp       wt
   <chr>              <dbl>  <dbl>    <dbl>
 1 Mazda RX4          0.151 -0.535 -0.610  
 2 Mazda RX4 Wag      0.151 -0.535 -0.350  
 3 Datsun 710         0.450 -0.783 -0.917  
 4 Hornet 4 Drive     0.217 -0.535 -0.00230
 5 Hornet Sportabout -0.231  0.413  0.228  
 6 Valiant           -0.330 -0.608  0.248  
 7 Duster 360        -0.961  1.43   0.361  
 8 Merc 240D          0.715 -1.24  -0.0278 
 9 Merc 230           0.450 -0.754 -0.0687 
10 Merc 280          -0.148 -0.345  0.228  
# ℹ 22 more rows

7.2 5.2 行操作 rowwise()

# 行方向计算
df %>%
    rowwise() %>%
    mutate(row_mean = mean(c(mpg, hp, wt))) %>%
    select(car, mpg, hp, wt, row_mean)

# A tibble: 32 × 5
# Rowwise: 
   car                 mpg    hp    wt row_mean
   <chr>             <dbl> <dbl> <dbl>    <dbl>
 1 Mazda RX4          21     110  2.62     44.5
 2 Mazda RX4 Wag      21     110  2.88     44.6
 3 Datsun 710         22.8    93  2.32     39.4
 4 Hornet 4 Drive     21.4   110  3.22     44.9
 5 Hornet Sportabout  18.7   175  3.44     65.7
 6 Valiant            18.1   105  3.46     42.2
 7 Duster 360         14.3   245  3.57     87.6
 8 Merc 240D          24.4    62  3.19     29.9
 9 Merc 230           22.8    95  3.15     40.3
10 Merc 280           19.2   123  3.44     48.5
# ℹ 22 more rows
…
7.4 5.4 缺失值处理

# 删除含NA行
df %>% drop_na()

# A tibble: 32 × 12
   car           mpg   cyl  disp    hp  drat    wt  qsec    vs    am  gear  carb
   <chr>       <dbl> <dbl> <dbl> <dbl> <dbl> <dbl> <dbl> <dbl> <dbl> <dbl> <dbl>
 1 Mazda RX4    21       6  160    110  3.9   2.62  16.5     0     1     4     4
 2 Mazda RX4 …  21       6  160    110  3.9   2.88  17.0     0     1     4     4
 3 Datsun 710   22.8     4  108     93  3.85  2.32  18.6     1     1     4     1
 4 Hornet 4 D…  21.4     6  258    110  3.08  3.22  19.4     1     0     3     1
 5 Hornet Spo…  18.7     8  360    175  3.15  3.44  17.0     0     0     3     2
 6 Valiant      18.1     6  225    105  2.76  3.46  20.2     1     0     3     1
 7 Duster 360   14.3     8  360    245  3.21  3.57  15.8     0     0     3     4
 8 Merc 240D    24.4     4  147.    62  3.69  3.19  20       1     0     4     2
 9 Merc 230     22.8     4  141.    95  3.92  3.15  22.9     1     0     4     2
10 Merc 280     19.2     6  168.   123  3.92  3.44  18.3     1     0     4     4
# ℹ 22 more rows

# 填充NA
df %>% replace_na(list(mpg = 0, hp = 0))

# A tibble: 32 × 12
   car           mpg   cyl  disp    hp  drat    wt  qsec    vs    am  gear  carb
   <chr>       <dbl> <dbl> <dbl> <dbl> <dbl> <dbl> <dbl> <dbl> <dbl> <dbl> <dbl>
 1 Mazda RX4    21       6  160    110  3.9   2.62  16.5     0     1     4     4
 2 Mazda RX4 …  21       6  160    110  3.9   2.88  17.0     0     1     4     4
 3 Datsun 710   22.8     4  108     93  3.85  2.32  18.6     1     1     4     1
 4 Hornet 4 D…  21.4     6  258    110  3.08  3.22  19.4     1     0     3     1
 5 Hornet Spo…  18.7     8  360    175  3.15  3.44  17.0     0     0     3     2
 6 Valiant      18.1     6  225    105  2.76  3.46  20.2     1     0     3     1
 7 Duster 360   14.3     8  360    245  3.21  3.57  15.8     0     0     3     4
 8 Merc 240D    24.4     4  147.    62  3.69  3.19  20       1     0     4     2
 9 Merc 230     22.8     4  141.    95  3.92  3.15  22.9     1     0     4     2
10 Merc 280     19.2     6  168.   123  3.92  3.44  18.3     1     0     4     4
# ℹ 22 more rows
…
