readr/readxl 高效数据读取指南 – R 语言学习笔记
…
temp_log <- tempfile(fileext = ".csv")
write_csv(log_data, temp_log)

# 只读取 ERROR 级别（先读取再过滤）
errors <- read_csv(temp_log, show_col_types = FALSE) %>%
    filter(level == "ERROR")

errors

# A tibble: 54 × 3
   timestamp           level message  
   <dttm>              <chr> <chr>    
 1 2023-12-31 16:01:00 ERROR Event 2  
 2 2023-12-31 16:12:00 ERROR Event 13 
 3 2023-12-31 16:26:00 ERROR Event 27 
 4 2023-12-31 16:39:00 ERROR Event 40 
 5 2023-12-31 16:45:00 ERROR Event 46 
 6 2023-12-31 16:51:00 ERROR Event 52 
 7 2023-12-31 17:20:00 ERROR Event 81 
 8 2023-12-31 17:40:00 ERROR Event 101
 9 2023-12-31 17:42:00 ERROR Event 103
10 2023-12-31 18:00:00 ERROR Event 121
# ℹ 44 more rows
…
