tidyverse vs pandas: R与Python数据处理对比 – R 语言学习笔记
…
# 使用 isin()
df_py[df_py['cylinders'].isin([4, 6])]

# 或使用 query() 方法 (推荐)
df_py.query('mpg > 25')
df_py.query('mpg > 20 and cylinders == 4')

选择列 (select / filter)

tidyverse (R)

# 选择特定列
df_r %>% select(car, mpg, hp)

# A tibble: 32 × 3
   car                 mpg    hp
   <chr>             <dbl> <dbl>
 1 Mazda RX4          21     110
 2 Mazda RX4 Wag      21     110
 3 Datsun 710         22.8    93
 4 Hornet 4 Drive     21.4   110
 5 Hornet Sportabout  18.7   175
 6 Valiant            18.1   105
 7 Duster 360         14.3   245
 8 Merc 240D          24.4    62
 9 Merc 230           22.8    95
10 Merc 280           19.2   123
# ℹ 22 more rows

# 排除列
df_r %>% select(-vs, -am)

# A tibble: 32 × 10
   car                 mpg   cyl  disp    hp  drat    wt  qsec  gear  carb
   <chr>             <dbl> <dbl> <dbl> <dbl> <dbl> <dbl> <dbl> <dbl> <dbl>
 1 Mazda RX4          21       6  160    110  3.9   2.62  16.5     4     4
 2 Mazda RX4 Wag      21       6  160    110  3.9   2.88  17.0     4     4
 3 Datsun 710         22.8     4  108     93  3.85  2.32  18.6     4     1
 4 Hornet 4 Drive     21.4     6  258    110  3.08  3.22  19.4     3     1
 5 Hornet Sportabout  18.7     8  360    175  3.15  3.44  17.0     3     2
 6 Valiant            18.1     6  225    105  2.76  3.46  20.2     3     1
 7 Duster 360         14.3     8  360    245  3.21  3.57  15.8     3     4
 8 Merc 240D          24.4     4  147.    62  3.69  3.19  20       4     2
 9 Merc 230           22.8     4  141.    95  3.92  3.15  22.9     4     2
10 Merc 280           19.2     6  168.   123  3.92  3.44  18.3     4     4
# ℹ 22 more rows

# 选择范围
df_r %>% select(mpg:hp)

# A tibble: 32 × 4
     mpg   cyl  disp    hp
   <dbl> <dbl> <dbl> <dbl>
 1  21       6  160    110
 2  21       6  160    110
 3  22.8     4  108     93
 4  21.4     6  258    110
 5  18.7     8  360    175
 6  18.1     6  225    105
 7  14.3     8  360    245
 8  24.4     4  147.    62
 9  22.8     4  141.    95
10  19.2     6  168.   123
# ℹ 22 more rows

# 辅助函数
df_r %>% select(starts_with("c"))     # 以c开头

# A tibble: 32 × 3
   car                 cyl  carb
   <chr>             <dbl> <dbl>
 1 Mazda RX4             6     4
 2 Mazda RX4 Wag         6     4
 3 Datsun 710            4     1
 4 Hornet 4 Drive        6     1
 5 Hornet Sportabout     8     2
 6 Valiant               6     1
 7 Duster 360            8     4
 8 Merc 240D             4     2
 9 Merc 230              4     2
10 Merc 280              6     4
# ℹ 22 more rows

df_r %>% select(ends_with("p"))       # 以p结尾

# A tibble: 32 × 2
    disp    hp
   <dbl> <dbl>
 1  160    110
 2  160    110
 3  108     93
 4  258    110
 5  360    175
 6  225    105
 7  360    245
 8  147.    62
 9  141.    95
10  168.   123
# ℹ 22 more rows

df_r %>% select(contains("ar"))       # 包含ar

# A tibble: 32 × 3
   car                gear  carb
   <chr>             <dbl> <dbl>
 1 Mazda RX4             4     4
 2 Mazda RX4 Wag         4     4
 3 Datsun 710            4     1
 4 Hornet 4 Drive        3     1
 5 Hornet Sportabout     3     2
 6 Valiant               3     1
 7 Duster 360            3     4
 8 Merc 240D             4     2
 9 Merc 230              4     2
10 Merc 280              4     4
# ℹ 22 more rows

df_r %>% select(where(is.numeric))    # 数值型列

# A tibble: 32 × 11
     mpg   cyl  disp    hp  drat    wt  qsec    vs    am  gear  carb
   <dbl> <dbl> <dbl> <dbl> <dbl> <dbl> <dbl> <dbl> <dbl> <dbl> <dbl>
 1  21       6  160    110  3.9   2.62  16.5     0     1     4     4
 2  21       6  160    110  3.9   2.88  17.0     0     1     4     4
 3  22.8     4  108     93  3.85  2.32  18.6     1     1     4     1
 4  21.4     6  258    110  3.08  3.22  19.4     1     0     3     1
 5  18.7     8  360    175  3.15  3.44  17.0     0     0     3     2
 6  18.1     6  225    105  2.76  3.46  20.2     1     0     3     1
 7  14.3     8  360    245  3.21  3.57  15.8     0     0     3     4
 8  24.4     4  147.    62  3.69  3.19  20       1     0     4     2
 9  22.8     4  141.    95  3.92  3.15  22.9     1     0     4     2
10  19.2     6  168.   123  3.92  3.44  18.3     1     0     4     4
# ℹ 22 more rows
…
# 选择数值型列
df_py.select_dtypes(include=['number'])

数据排序

排序 (arrange / sort_values)

tidyverse (R)

# 升序排序
df_r %>% arrange(mpg)

# A tibble: 32 × 12
   car           mpg   cyl  disp    hp  drat    wt  qsec    vs    am  gear  carb
   <chr>       <dbl> <dbl> <dbl> <dbl> <dbl> <dbl> <dbl> <dbl> <dbl> <dbl> <dbl>
 1 Cadillac F…  10.4     8  472    205  2.93  5.25  18.0     0     0     3     4
 2 Lincoln Co…  10.4     8  460    215  3     5.42  17.8     0     0     3     4
 3 Camaro Z28   13.3     8  350    245  3.73  3.84  15.4     0     0     3     4
 4 Duster 360   14.3     8  360    245  3.21  3.57  15.8     0     0     3     4
 5 Chrysler I…  14.7     8  440    230  3.23  5.34  17.4     0     0     3     4
 6 Maserati B…  15       8  301    335  3.54  3.57  14.6     0     1     5     8
 7 Merc 450SLC  15.2     8  276.   180  3.07  3.78  18       0     0     3     3
 8 AMC Javelin  15.2     8  304    150  3.15  3.44  17.3     0     0     3     2
 9 Dodge Chal…  15.5     8  318    150  2.76  3.52  16.9     0     0     3     2
10 Ford Pante…  15.8     8  351    264  4.22  3.17  14.5     0     1     5     4
# ℹ 22 more rows

# 降序排序
df_r %>% arrange(desc(mpg))

# A tibble: 32 × 12
   car           mpg   cyl  disp    hp  drat    wt  qsec    vs    am  gear  carb
   <chr>       <dbl> <dbl> <dbl> <dbl> <dbl> <dbl> <dbl> <dbl> <dbl> <dbl> <dbl>
 1 Toyota Cor…  33.9     4  71.1    65  4.22  1.84  19.9     1     1     4     1
 2 Fiat 128     32.4     4  78.7    66  4.08  2.2   19.5     1     1     4     1
 3 Honda Civic  30.4     4  75.7    52  4.93  1.62  18.5     1     1     4     2
 4 Lotus Euro…  30.4     4  95.1   113  3.77  1.51  16.9     1     1     5     2
 5 Fiat X1-9    27.3     4  79      66  4.08  1.94  18.9     1     1     4     1
 6 Porsche 91…  26       4 120.     91  4.43  2.14  16.7     0     1     5     2
 7 Merc 240D    24.4     4 147.     62  3.69  3.19  20       1     0     4     2
 8 Datsun 710   22.8     4 108      93  3.85  2.32  18.6     1     1     4     1
 9 Merc 230     22.8     4 141.     95  3.92  3.15  22.9     1     0     4     2
10 Toyota Cor…  21.5     4 120.     97  3.7   2.46  20.0     1     0     3     1
# ℹ 22 more rows

# 多列排序
df_r %>% arrange(cyl, desc(mpg))

# A tibble: 32 × 12
   car           mpg   cyl  disp    hp  drat    wt  qsec    vs    am  gear  carb
   <chr>       <dbl> <dbl> <dbl> <dbl> <dbl> <dbl> <dbl> <dbl> <dbl> <dbl> <dbl>
 1 Toyota Cor…  33.9     4  71.1    65  4.22  1.84  19.9     1     1     4     1
 2 Fiat 128     32.4     4  78.7    66  4.08  2.2   19.5     1     1     4     1
 3 Honda Civic  30.4     4  75.7    52  4.93  1.62  18.5     1     1     4     2
 4 Lotus Euro…  30.4     4  95.1   113  3.77  1.51  16.9     1     1     5     2
 5 Fiat X1-9    27.3     4  79      66  4.08  1.94  18.9     1     1     4     1
 6 Porsche 91…  26       4 120.     91  4.43  2.14  16.7     0     1     5     2
 7 Merc 240D    24.4     4 147.     62  3.69  3.19  20       1     0     4     2
 8 Datsun 710   22.8     4 108      93  3.85  2.32  18.6     1     1     4     1
 9 Merc 230     22.8     4 141.     95  3.92  3.15  22.9     1     0     4     2
10 Toyota Cor…  21.5     4 120.     97  3.7   2.46  20.0     1     0     3     1
# ℹ 22 more rows
…
数据转换

创建/修改列 (mutate / assign)

tidyverse (R)

# 创建新列
df_r %>% 
  mutate(
    kpl = mpg * 0.425,          # 英里转公里
    hp_per_cyl = hp / cyl,      # 每缸马力
    efficiency = ifelse(mpg > 20, "high", "low")
  )

# A tibble: 32 × 15
   car     mpg   cyl  disp    hp  drat    wt  qsec    vs    am  gear  carb   kpl
   <chr> <dbl> <dbl> <dbl> <dbl> <dbl> <dbl> <dbl> <dbl> <dbl> <dbl> <dbl> <dbl>
 1 Mazd…  21       6  160    110  3.9   2.62  16.5     0     1     4     4  8.92
 2 Mazd…  21       6  160    110  3.9   2.88  17.0     0     1     4     4  8.92
 3 Dats…  22.8     4  108     93  3.85  2.32  18.6     1     1     4     1  9.69
 4 Horn…  21.4     6  258    110  3.08  3.22  19.4     1     0     3     1  9.09
 5 Horn…  18.7     8  360    175  3.15  3.44  17.0     0     0     3     2  7.95
 6 Vali…  18.1     6  225    105  2.76  3.46  20.2     1     0     3     1  7.69
 7 Dust…  14.3     8  360    245  3.21  3.57  15.8     0     0     3     4  6.08
 8 Merc…  24.4     4  147.    62  3.69  3.19  20       1     0     4     2 10.4 
 9 Merc…  22.8     4  141.    95  3.92  3.15  22.9     1     0     4     2  9.69
10 Merc…  19.2     6  168.   123  3.92  3.44  18.3     1     0     4     4  8.16
# ℹ 22 more rows
# ℹ 2 more variables: hp_per_cyl <dbl>, efficiency <chr>

# 修改现有列
df_r %>% 
  mutate(
    mpg = round(mpg, 1),
    hp = as.integer(hp)
  )

# A tibble: 32 × 12
   car           mpg   cyl  disp    hp  drat    wt  qsec    vs    am  gear  carb
   <chr>       <dbl> <dbl> <dbl> <int> <dbl> <dbl> <dbl> <dbl> <dbl> <dbl> <dbl>
 1 Mazda RX4    21       6  160    110  3.9   2.62  16.5     0     1     4     4
 2 Mazda RX4 …  21       6  160    110  3.9   2.88  17.0     0     1     4     4
 3 Datsun 710   22.8     4  108     93  3.85  2.32  18.6     1     1     4     1
 4 Hornet 4 D…  21.4     6  258    110  3.08  3.22  19.4     1     0     3     1
 5 Hornet Spo…  18.7     8  360    175  3.15  3.44  17.0     0     0     3     2
 6 Valiant      18.1     6  225    105  2.76  3.46  20.2     1     0     3     1
 7 Duster 360   14.3     8  360    245  3.21  3.57  15.8     0     0     3     4
 8 Merc 240D    24.4     4  147.    62  3.69  3.19  20       1     0     4     2
 9 Merc 230     22.8     4  141.    95  3.92  3.15  22.9     1     0     4     2
10 Merc 280     19.2     6  168.   123  3.92  3.44  18.3     1     0     4     4
# ℹ 22 more rows
…
重命名列 (rename)

tidyverse (R)

# 重命名列
df_r %>% 
  rename(
    miles_per_gallon = mpg,
    horsepower = hp
  )

# A tibble: 32 × 12
   car     miles_per_gallon   cyl  disp horsepower  drat    wt  qsec    vs    am
   <chr>              <dbl> <dbl> <dbl>      <dbl> <dbl> <dbl> <dbl> <dbl> <dbl>
 1 Mazda …             21       6  160         110  3.9   2.62  16.5     0     1
 2 Mazda …             21       6  160         110  3.9   2.88  17.0     0     1
 3 Datsun…             22.8     4  108          93  3.85  2.32  18.6     1     1
 4 Hornet…             21.4     6  258         110  3.08  3.22  19.4     1     0
 5 Hornet…             18.7     8  360         175  3.15  3.44  17.0     0     0
 6 Valiant             18.1     6  225         105  2.76  3.46  20.2     1     0
 7 Duster…             14.3     8  360         245  3.21  3.57  15.8     0     0
 8 Merc 2…             24.4     4  147.         62  3.69  3.19  20       1     0
 9 Merc 2…             22.8     4  141.         95  3.92  3.15  22.9     1     0
10 Merc 2…             19.2     6  168.        123  3.92  3.44  18.3     1     0
# ℹ 22 more rows
# ℹ 2 more variables: gear <dbl>, carb <dbl>
…
分组转换 (mutate / transform)

tidyverse (R)

# 分组后创建新列
df_r %>% 
  group_by(cyl) %>% 
  mutate(
    mean_mpg = mean(mpg),       # 组内均值
    mpg_diff = mpg - mean_mpg   # 偏差
  ) %>% 
  ungroup()

# A tibble: 32 × 14
   car           mpg   cyl  disp    hp  drat    wt  qsec    vs    am  gear  carb
   <chr>       <dbl> <dbl> <dbl> <dbl> <dbl> <dbl> <dbl> <dbl> <dbl> <dbl> <dbl>
 1 Mazda RX4    21       6  160    110  3.9   2.62  16.5     0     1     4     4
 2 Mazda RX4 …  21       6  160    110  3.9   2.88  17.0     0     1     4     4
 3 Datsun 710   22.8     4  108     93  3.85  2.32  18.6     1     1     4     1
 4 Hornet 4 D…  21.4     6  258    110  3.08  3.22  19.4     1     0     3     1
 5 Hornet Spo…  18.7     8  360    175  3.15  3.44  17.0     0     0     3     2
 6 Valiant      18.1     6  225    105  2.76  3.46  20.2     1     0     3     1
 7 Duster 360   14.3     8  360    245  3.21  3.57  15.8     0     0     3     4
 8 Merc 240D    24.4     4  147.    62  3.69  3.19  20       1     0     4     2
 9 Merc 230     22.8     4  141.    95  3.92  3.15  22.9     1     0     4     2
10 Merc 280     19.2     6  168.   123  3.92  3.44  18.3     1     0     4     4
# ℹ 22 more rows
# ℹ 2 more variables: mean_mpg <dbl>, mpg_diff <dbl>
…
窗口函数

tidyverse (R)

df_r %>% 
  arrange(mpg) %>% 
  mutate(
    row_num = row_number(),       # 行号
    rank = min_rank(mpg),         # 排名
    lag_mpg = lag(mpg),           # 前一行
    lead_mpg = lead(mpg),         # 后一行
    cumsum_mpg = cumsum(mpg)      # 累计和
  )

# A tibble: 32 × 17
   car           mpg   cyl  disp    hp  drat    wt  qsec    vs    am  gear  carb
   <chr>       <dbl> <dbl> <dbl> <dbl> <dbl> <dbl> <dbl> <dbl> <dbl> <dbl> <dbl>
 1 Cadillac F…  10.4     8  472    205  2.93  5.25  18.0     0     0     3     4
 2 Lincoln Co…  10.4     8  460    215  3     5.42  17.8     0     0     3     4
 3 Camaro Z28   13.3     8  350    245  3.73  3.84  15.4     0     0     3     4
 4 Duster 360   14.3     8  360    245  3.21  3.57  15.8     0     0     3     4
 5 Chrysler I…  14.7     8  440    230  3.23  5.34  17.4     0     0     3     4
 6 Maserati B…  15       8  301    335  3.54  3.57  14.6     0     1     5     8
 7 Merc 450SLC  15.2     8  276.   180  3.07  3.78  18       0     0     3     3
 8 AMC Javelin  15.2     8  304    150  3.15  3.44  17.3     0     0     3     2
 9 Dodge Chal…  15.5     8  318    150  2.76  3.52  16.9     0     0     3     2
10 Ford Pante…  15.8     8  351    264  4.22  3.17  14.5     0     1     5     4
# ℹ 22 more rows
# ℹ 5 more variables: row_num <int>, rank <int>, lag_mpg <dbl>, lead_mpg <dbl>,
#   cumsum_mpg <dbl>
…
条件汇总

tidyverse (R)

df_r %>% 
  mutate(
    category = case_when(
      mpg > 25 ~ "high",
      mpg > 15 ~ "medium",
      TRUE ~ "low"
    )
  )

# A tibble: 32 × 13
   car           mpg   cyl  disp    hp  drat    wt  qsec    vs    am  gear  carb
   <chr>       <dbl> <dbl> <dbl> <dbl> <dbl> <dbl> <dbl> <dbl> <dbl> <dbl> <dbl>
 1 Mazda RX4    21       6  160    110  3.9   2.62  16.5     0     1     4     4
 2 Mazda RX4 …  21       6  160    110  3.9   2.88  17.0     0     1     4     4
 3 Datsun 710   22.8     4  108     93  3.85  2.32  18.6     1     1     4     1
 4 Hornet 4 D…  21.4     6  258    110  3.08  3.22  19.4     1     0     3     1
 5 Hornet Spo…  18.7     8  360    175  3.15  3.44  17.0     0     0     3     2
 6 Valiant      18.1     6  225    105  2.76  3.46  20.2     1     0     3     1
 7 Duster 360   14.3     8  360    245  3.21  3.57  15.8     0     0     3     4
 8 Merc 240D    24.4     4  147.    62  3.69  3.19  20       1     0     4     2
 9 Merc 230     22.8     4  141.    95  3.92  3.15  22.9     1     0     4     2
10 Merc 280     19.2     6  168.   123  3.92  3.44  18.3     1     0     4     4
# ℹ 22 more rows
# ℹ 1 more variable: category <chr>
…
索引差异

tidyverse (R)

# R的索引从1开始
df_r[1, ]      # 第一行

# A tibble: 1 × 12
  car         mpg   cyl  disp    hp  drat    wt  qsec    vs    am  gear  carb
  <chr>     <dbl> <dbl> <dbl> <dbl> <dbl> <dbl> <dbl> <dbl> <dbl> <dbl> <dbl>
1 Mazda RX4    21     6   160   110   3.9  2.62  16.5     0     1     4     4

df_r[, 1]      # 第一列

# A tibble: 32 × 1
   car              
   <chr>            
 1 Mazda RX4        
 2 Mazda RX4 Wag    
 3 Datsun 710       
 4 Hornet 4 Drive   
 5 Hornet Sportabout
 6 Valiant          
 7 Duster 360       
 8 Merc 240D        
 9 Merc 230         
10 Merc 280         
# ℹ 22 more rows

# 负索引表示排除
df_r[-1, ]     # 排除第一行

# A tibble: 31 × 12
   car           mpg   cyl  disp    hp  drat    wt  qsec    vs    am  gear  carb
   <chr>       <dbl> <dbl> <dbl> <dbl> <dbl> <dbl> <dbl> <dbl> <dbl> <dbl> <dbl>
 1 Mazda RX4 …  21       6  160    110  3.9   2.88  17.0     0     1     4     4
 2 Datsun 710   22.8     4  108     93  3.85  2.32  18.6     1     1     4     1
 3 Hornet 4 D…  21.4     6  258    110  3.08  3.22  19.4     1     0     3     1
 4 Hornet Spo…  18.7     8  360    175  3.15  3.44  17.0     0     0     3     2
 5 Valiant      18.1     6  225    105  2.76  3.46  20.2     1     0     3     1
 6 Duster 360   14.3     8  360    245  3.21  3.57  15.8     0     0     3     4
 7 Merc 240D    24.4     4  147.    62  3.69  3.19  20       1     0     4     2
 8 Merc 230     22.8     4  141.    95  3.92  3.15  22.9     1     0     4     2
 9 Merc 280     19.2     6  168.   123  3.92  3.44  18.3     1     0     4     4
10 Merc 280C    17.8     6  168.   123  3.92  3.44  18.9     1     0     4     4
# ℹ 21 more rows
…
